[
	["builder", {"i": "ios-folder-outline"}, [
		["cb", {"i": "folder"}],
		["layout", {"i": "folder"}],
		["search", {"i": "folder"}],
		["tabs", {"i": "folder"}],
		["topbar-menu", {"i": "folder"}],
		["ui", {"i": "folder"} ,[
			["btn", {"i": "folder"}],
			["icon", {"i": "folder"}]
		]]
	]]
]